EESchema Schematic File Version 4
EELAYER 30 0
EELAYER END
$Descr A4 11693 8268
encoding utf-8
Sheet 4 4
Title "Status LEDs for UPS uHAT"
Date "2021-06-01"
Rev "0.1"
Comp "Group 11"
Comment1 ""
Comment2 ""
Comment3 ""
Comment4 ""
$EndDescr
$Comp
L Device:LED D10
U 1 1 606D09D8
P 6500 3150
F 0 "D10" V 6700 3150 50  0000 R CNN
F 1 "LED" V 6600 3150 50  0000 R CNN
F 2 "LED_SMD:LED_0603_1608Metric_Pad1.05x0.95mm_HandSolder" H 6500 3150 50  0001 C CNN
F 3 "~" H 6500 3150 50  0001 C CNN
	1    6500 3150
	0    -1   -1   0   
$EndComp
$Comp
L Device:LED D9
U 1 1 606D1B5F
P 6350 3150
F 0 "D9" V 6550 3150 50  0000 R CNN
F 1 "LED" V 6450 3150 50  0000 R CNN
F 2 "LED_SMD:LED_0603_1608Metric_Pad1.05x0.95mm_HandSolder" H 6350 3150 50  0001 C CNN
F 3 "~" H 6350 3150 50  0001 C CNN
	1    6350 3150
	0    -1   -1   0   
$EndComp
$Comp
L Device:LED D3
U 1 1 606D1FD1
P 5450 3150
F 0 "D3" V 5650 3150 50  0000 R CNN
F 1 "LED" V 5550 3150 50  0000 R CNN
F 2 "LED_SMD:LED_0603_1608Metric_Pad1.05x0.95mm_HandSolder" H 5450 3150 50  0001 C CNN
F 3 "~" H 5450 3150 50  0001 C CNN
	1    5450 3150
	0    -1   -1   0   
$EndComp
$Comp
L Device:LED D8
U 1 1 606D2219
P 6200 3150
F 0 "D8" V 6400 3150 50  0000 R CNN
F 1 "LED" V 6300 3150 50  0000 R CNN
F 2 "LED_SMD:LED_0603_1608Metric_Pad1.05x0.95mm_HandSolder" H 6200 3150 50  0001 C CNN
F 3 "~" H 6200 3150 50  0001 C CNN
	1    6200 3150
	0    -1   -1   0   
$EndComp
$Comp
L Device:LED D4
U 1 1 606D2475
P 5600 3150
F 0 "D4" V 5800 3150 50  0000 R CNN
F 1 "LED" V 5700 3150 50  0000 R CNN
F 2 "LED_SMD:LED_0603_1608Metric_Pad1.05x0.95mm_HandSolder" H 5600 3150 50  0001 C CNN
F 3 "~" H 5600 3150 50  0001 C CNN
	1    5600 3150
	0    -1   -1   0   
$EndComp
$Comp
L Device:LED D5
U 1 1 606D2BC2
P 5750 3150
F 0 "D5" V 5950 3150 50  0000 R CNN
F 1 "LED" V 5850 3150 50  0000 R CNN
F 2 "LED_SMD:LED_0603_1608Metric_Pad1.05x0.95mm_HandSolder" H 5750 3150 50  0001 C CNN
F 3 "~" H 5750 3150 50  0001 C CNN
	1    5750 3150
	0    -1   -1   0   
$EndComp
Wire Wire Line
	5750 3300 5750 3350
Wire Wire Line
	5750 3350 5800 3350
Wire Wire Line
	6050 3350 6000 3350
Wire Wire Line
	6200 3300 6200 3400
Wire Wire Line
	6200 3400 6100 3400
Wire Wire Line
	6350 3300 6350 3450
Wire Wire Line
	6350 3450 6200 3450
Wire Wire Line
	6500 3300 6500 3500
Wire Wire Line
	6500 3500 6300 3500
Wire Wire Line
	5600 3300 5600 3400
Wire Wire Line
	5600 3400 5700 3400
Wire Wire Line
	5450 3300 5450 3450
Wire Wire Line
	5450 3450 5600 3450
Wire Wire Line
	5300 3500 5500 3500
Wire Wire Line
	5150 3550 5400 3550
Wire Wire Line
	6500 3000 6500 2850
Wire Wire Line
	6350 3000 6350 2850
Connection ~ 6350 2850
Wire Wire Line
	6350 2850 6500 2850
Wire Wire Line
	6200 3000 6200 2850
Connection ~ 6200 2850
Wire Wire Line
	6200 2850 6350 2850
Wire Wire Line
	5750 3000 5750 2850
Connection ~ 5750 2850
Wire Wire Line
	5600 3000 5600 2850
Connection ~ 5600 2850
Wire Wire Line
	5600 2850 5750 2850
Wire Wire Line
	5450 3000 5450 2850
Connection ~ 5450 2850
Wire Wire Line
	5450 2850 5600 2850
$Comp
L Device:R_Small_US R1
U 1 1 60712290
P 5000 4000
F 0 "R1" V 4795 4000 50  0000 C CNN
F 1 "56k" V 4886 4000 50  0000 C CNN
F 2 "Resistor_SMD:R_0201_0603Metric_Pad0.64x0.40mm_HandSolder" H 5000 4000 50  0001 C CNN
F 3 "~" H 5000 4000 50  0001 C CNN
	1    5000 4000
	0    1    1    0   
$EndComp
$Comp
L Device:R_Small_US R3
U 1 1 60712D2C
P 5800 4650
F 0 "R3" H 5732 4604 50  0000 R CNN
F 1 "6k2" H 5732 4695 50  0000 R CNN
F 2 "Resistor_SMD:R_0201_0603Metric_Pad0.64x0.40mm_HandSolder" H 5800 4650 50  0001 C CNN
F 3 "~" H 5800 4650 50  0001 C CNN
	1    5800 4650
	-1   0    0    1   
$EndComp
$Comp
L Device:R_Small_US R4
U 1 1 6071540D
P 5500 4650
F 0 "R4" H 5432 4604 50  0000 R CNN
F 1 "4k7" H 5432 4695 50  0000 R CNN
F 2 "Resistor_SMD:R_0201_0603Metric_Pad0.64x0.40mm_HandSolder" H 5500 4650 50  0001 C CNN
F 3 "~" H 5500 4650 50  0001 C CNN
	1    5500 4650
	-1   0    0    1   
$EndComp
Wire Wire Line
	5800 4750 5800 4800
Wire Wire Line
	4850 4000 4900 4000
Wire Wire Line
	5100 4000 5150 4000
Wire Wire Line
	5150 4000 5150 3700
Wire Wire Line
	5150 3700 5000 3700
Wire Wire Line
	5000 3700 5000 2850
Wire Wire Line
	6300 4650 6900 4650
Wire Wire Line
	6900 4650 6900 2850
Wire Wire Line
	6900 2850 6500 2850
Connection ~ 6500 2850
Wire Wire Line
	6100 4500 6250 4500
Wire Wire Line
	5500 4550 5500 4500
Wire Wire Line
	6050 2850 6200 2850
Connection ~ 6050 2850
Wire Wire Line
	6050 3000 6050 2850
Wire Wire Line
	6050 3300 6050 3350
$Comp
L Device:LED D7
U 1 1 606D266B
P 6050 3150
F 0 "D7" V 6250 3150 50  0000 R CNN
F 1 "LED" V 6150 3150 50  0000 R CNN
F 2 "LED_SMD:LED_0603_1608Metric_Pad1.05x0.95mm_HandSolder" H 6050 3150 50  0001 C CNN
F 3 "~" H 6050 3150 50  0001 C CNN
	1    6050 3150
	0    -1   -1   0   
$EndComp
Wire Wire Line
	5750 2850 5900 2850
Wire Wire Line
	5900 2850 6050 2850
Connection ~ 5900 2850
Wire Wire Line
	5900 3000 5900 2850
$Comp
L Device:LED D6
U 1 1 606D2931
P 5900 3150
F 0 "D6" V 6100 3150 50  0000 R CNN
F 1 "LED" V 6000 3150 50  0000 R CNN
F 2 "LED_SMD:LED_0603_1608Metric_Pad1.05x0.95mm_HandSolder" H 5900 3150 50  0001 C CNN
F 3 "~" H 5900 3150 50  0001 C CNN
	1    5900 3150
	0    -1   -1   0   
$EndComp
Wire Wire Line
	5300 2850 5450 2850
Connection ~ 5300 2850
Wire Wire Line
	5300 3000 5300 2850
Wire Wire Line
	5300 3300 5300 3500
$Comp
L Device:LED D2
U 1 1 606D1CE0
P 5300 3150
F 0 "D2" V 5500 3150 50  0000 R CNN
F 1 "LED" V 5400 3150 50  0000 R CNN
F 2 "LED_SMD:LED_0603_1608Metric_Pad1.05x0.95mm_HandSolder" H 5300 3150 50  0001 C CNN
F 3 "~" H 5300 3150 50  0001 C CNN
	1    5300 3150
	0    -1   -1   0   
$EndComp
Connection ~ 5150 2850
Wire Wire Line
	5150 2850 5000 2850
Wire Wire Line
	5150 2850 5300 2850
Wire Wire Line
	5150 3000 5150 2850
Wire Wire Line
	5150 3300 5150 3550
$Comp
L Device:LED D1
U 1 1 606D16B8
P 5150 3150
F 0 "D1" V 5350 3150 50  0000 R CNN
F 1 "LED" V 5250 3150 50  0000 R CNN
F 2 "LED_SMD:LED_0603_1608Metric_Pad1.05x0.95mm_HandSolder" H 5150 3150 50  0001 C CNN
F 3 "~" H 5150 3150 50  0001 C CNN
	1    5150 3150
	0    -1   -1   0   
$EndComp
Connection ~ 5700 4500
Wire Wire Line
	5500 4500 5700 4500
Wire Wire Line
	5700 4500 6000 4500
Wire Wire Line
	6000 4500 6000 4400
Wire Wire Line
	5700 4400 5700 4500
Wire Wire Line
	5800 4400 5800 4550
Wire Wire Line
	5500 3500 5500 3600
Wire Wire Line
	5600 3450 5600 3600
Wire Wire Line
	5700 3400 5700 3600
Wire Wire Line
	5800 3350 5800 3600
Wire Wire Line
	5900 3300 5900 3600
Wire Wire Line
	6000 3350 6000 3600
Wire Wire Line
	6100 3400 6100 3600
Wire Wire Line
	6200 3450 6200 3600
Wire Wire Line
	6300 3500 6300 3600
Wire Wire Line
	6300 4650 6300 4400
Wire Wire Line
	6100 4400 6100 4500
Wire Wire Line
	5400 3550 5400 3600
$Comp
L Driver_LED:LM3914V U1
U 1 1 606CB119
P 5800 4000
F 0 "U1" V 5846 3256 50  0000 R CNN
F 1 "LM3914V" V 5755 3256 50  0000 R CNN
F 2 "Package_LCC:PLCC-20" H 5800 4000 50  0001 C CNN
F 3 "https://www.ti.com/lit/ds/symlink/lm3914.pdf" H 5800 4000 50  0001 C CNN
	1    5800 4000
	0    -1   -1   0   
$EndComp
$Comp
L Device:R_Small_US R2
U 1 1 60B958E3
P 5800 4900
F 0 "R2" H 5732 4854 50  0000 R CNN
F 1 "1k2" H 5732 4945 50  0000 R CNN
F 2 "Resistor_SMD:R_0201_0603Metric_Pad0.64x0.40mm_HandSolder" H 5800 4900 50  0001 C CNN
F 3 "~" H 5800 4900 50  0001 C CNN
	1    5800 4900
	-1   0    0    1   
$EndComp
Wire Wire Line
	6250 4500 6250 5050
Wire Wire Line
	5800 5000 5800 5050
Connection ~ 6250 5050
Connection ~ 5800 5050
Wire Wire Line
	5800 5050 6250 5050
Wire Wire Line
	6250 5050 6500 5050
Wire Wire Line
	6500 4000 6500 5050
Wire Wire Line
	5500 5050 5500 4750
Connection ~ 5500 5050
Wire Wire Line
	5500 5050 5800 5050
Text GLabel 4650 5050 0    50   Input ~ 0
GND
Text GLabel 4800 2850 0    50   Input ~ 0
VBattery
Wire Wire Line
	5150 4000 5200 4000
Connection ~ 5150 4000
$Comp
L Device:R_Small_US R5
U 1 1 60B907D5
P 4850 4150
F 0 "R5" H 4782 4104 50  0000 R CNN
F 1 "2k2" H 4782 4195 50  0000 R CNN
F 2 "Resistor_SMD:R_0201_0603Metric_Pad0.64x0.40mm_HandSolder" H 4850 4150 50  0001 C CNN
F 3 "~" H 4850 4150 50  0001 C CNN
	1    4850 4150
	-1   0    0    1   
$EndComp
$Comp
L Device:R_Small_US R6
U 1 1 60B90C78
P 4850 4350
F 0 "R6" H 4782 4304 50  0000 R CNN
F 1 "2k4" H 4782 4395 50  0000 R CNN
F 2 "Resistor_SMD:R_0201_0603Metric_Pad0.64x0.40mm_HandSolder" H 4850 4350 50  0001 C CNN
F 3 "~" H 4850 4350 50  0001 C CNN
	1    4850 4350
	-1   0    0    1   
$EndComp
$Comp
L Device:R_Small_US R8
U 1 1 60B90DF7
P 4850 4900
F 0 "R8" H 4782 4854 50  0000 R CNN
F 1 "3k" H 4782 4945 50  0000 R CNN
F 2 "Resistor_SMD:R_0201_0603Metric_Pad0.64x0.40mm_HandSolder" H 4850 4900 50  0001 C CNN
F 3 "~" H 4850 4900 50  0001 C CNN
	1    4850 4900
	-1   0    0    1   
$EndComp
$Comp
L Device:R_Small_US R7
U 1 1 60B913F5
P 4850 4700
F 0 "R7" H 4782 4654 50  0000 R CNN
F 1 "2k4" H 4782 4745 50  0000 R CNN
F 2 "Resistor_SMD:R_0201_0603Metric_Pad0.64x0.40mm_HandSolder" H 4850 4700 50  0001 C CNN
F 3 "~" H 4850 4700 50  0001 C CNN
	1    4850 4700
	-1   0    0    1   
$EndComp
Wire Wire Line
	5500 4400 5150 4400
Wire Wire Line
	5150 4400 5150 4500
Wire Wire Line
	5150 4500 4850 4500
Wire Wire Line
	4850 4500 4850 4450
Wire Wire Line
	4850 4500 4850 4600
Connection ~ 4850 4500
Wire Wire Line
	4850 4050 4850 4000
Wire Wire Line
	4850 5000 4850 5050
Wire Wire Line
	4850 5050 5500 5050
Wire Wire Line
	4800 2850 5000 2850
Connection ~ 5000 2850
Wire Wire Line
	4650 5050 4850 5050
Connection ~ 4850 5050
$EndSCHEMATC
