EESchema Schematic File Version 4
EELAYER 30 0
EELAYER END
$Descr A4 11693 8268
encoding utf-8
Sheet 2 4
Title "Switching Voltage Regulator for UPS uHAT"
Date "2021-06-01"
Rev "0.1"
Comp "Group 11"
Comment1 ""
Comment2 ""
Comment3 ""
Comment4 ""
$EndDescr
$Comp
L LTC3895IFE#TRPBF2:LTC3895IFE#TRPBF IC2
U 1 1 60B79441
P 5000 2650
F 0 "IC2" H 5800 2915 50  0000 C CNN
F 1 "LTC3895IFE#TRPBF" H 5800 2824 50  0000 C CNN
F 2 "lib:SOP50P640X120-39N" H 6450 2750 50  0001 L CNN
F 3 "https://www.analog.com/media/en/technical-documentation/data-sheets/3895fa.pdf" H 6450 2650 50  0001 L CNN
F 4 "Switching Voltage Regulators 150V Low Iq Synchronous Step-Down Controller" H 6450 2550 50  0001 L CNN "Description"
F 5 "1.2" H 6450 2450 50  0001 L CNN "Height"
F 6 "Linear Technology" H 6450 2350 50  0001 L CNN "Manufacturer_Name"
F 7 "LTC3895IFE#TRPBF" H 6450 2250 50  0001 L CNN "Manufacturer_Part_Number"
F 8 "584-LTC3895IFE#TRPBF" H 6450 2150 50  0001 L CNN "Mouser Part Number"
F 9 "https://www.mouser.com/Search/Refine.aspx?Keyword=584-LTC3895IFE%23TRPBF" H 6450 2050 50  0001 L CNN "Mouser Price/Stock"
F 10 "" H 6450 1950 50  0001 L CNN "Arrow Part Number"
F 11 "" H 6450 1850 50  0001 L CNN "Arrow Price/Stock"
	1    5000 2650
	1    0    0    -1  
$EndComp
$Comp
L Device:R_Small_US R14
U 1 1 60B7D54C
P 4050 2250
F 0 "R14" H 3850 2300 50  0000 L CNN
F 1 "18.7k" H 3800 2200 50  0000 L CNN
F 2 "Resistor_SMD:R_0201_0603Metric_Pad0.64x0.40mm_HandSolder" H 4050 2250 50  0001 C CNN
F 3 "~" H 4050 2250 50  0001 C CNN
	1    4050 2250
	1    0    0    -1  
$EndComp
$Comp
L Device:R_Small_US R13
U 1 1 60B7D644
P 4050 2550
F 0 "R13" H 3850 2600 50  0000 L CNN
F 1 "1Meg" H 3800 2500 50  0000 L CNN
F 2 "Resistor_SMD:R_0201_0603Metric_Pad0.64x0.40mm_HandSolder" H 4050 2550 50  0001 C CNN
F 3 "~" H 4050 2550 50  0001 C CNN
	1    4050 2550
	1    0    0    -1  
$EndComp
Wire Wire Line
	5000 2650 4900 2650
$Comp
L pspice:C C5
U 1 1 60B817C5
P 3150 3050
F 0 "C5" V 2835 3050 50  0000 C CNN
F 1 "0.01u" V 2926 3050 50  0000 C CNN
F 2 "Capacitor_SMD:CP_Elec_3x5.3" H 3150 3050 50  0001 C CNN
F 3 "~" H 3150 3050 50  0001 C CNN
	1    3150 3050
	0    1    1    0   
$EndComp
Wire Wire Line
	2900 3050 2350 3050
Wire Wire Line
	2350 3050 2350 3800
$Comp
L pspice:C C4
U 1 1 60B835A4
P 3000 3700
F 0 "C4" H 3178 3746 50  0000 L CNN
F 1 "100p" H 3178 3655 50  0000 L CNN
F 2 "Capacitor_SMD:CP_Elec_3x5.3" H 3000 3700 50  0001 C CNN
F 3 "~" H 3000 3700 50  0001 C CNN
	1    3000 3700
	1    0    0    -1  
$EndComp
Wire Wire Line
	5000 3250 4800 3250
Wire Wire Line
	4800 3250 4800 3400
Wire Wire Line
	4800 3400 3000 3400
Wire Wire Line
	3000 3400 3000 3450
Wire Wire Line
	3000 3950 3000 4100
$Comp
L Transistor_FET:BSC082N10LSG Q2
U 1 1 60B85A89
P 8150 3300
F 0 "Q2" H 8354 3346 50  0000 L CNN
F 1 "BSC082N10LSG" H 8354 3255 50  0000 L CNN
F 2 "Package_TO_SOT_SMD:TDSON-8-1" H 8350 3225 50  0001 L CIN
F 3 "http://www.infineon.com/dgdl/Infineon-BSC082N10LS-DS-v01_07-en.pdf?fileId=db3a3043163797a6011647faad240719" V 8150 3300 50  0001 L CNN
	1    8150 3300
	1    0    0    -1  
$EndComp
Wire Wire Line
	8250 1800 8250 3100
Wire Wire Line
	6600 4450 7650 4450
Wire Wire Line
	7650 4450 7650 3300
$Comp
L pspice:C C8
U 1 1 60B916CD
P 8250 4000
F 0 "C8" H 8428 4046 50  0000 L CNN
F 1 "0.1u" H 8428 3955 50  0000 L CNN
F 2 "Capacitor_SMD:CP_Elec_3x5.3" H 8250 4000 50  0001 C CNN
F 3 "~" H 8250 4000 50  0001 C CNN
	1    8250 4000
	1    0    0    -1  
$EndComp
Wire Wire Line
	8250 3500 8250 3550
Wire Wire Line
	8250 3700 8750 3700
Wire Wire Line
	8750 3700 8750 4350
Wire Wire Line
	8750 4350 6600 4350
Connection ~ 8250 3700
Wire Wire Line
	8250 3700 8250 3750
$Comp
L Transistor_FET:BSC082N10LSG Q4
U 1 1 60B93D12
P 9250 4200
F 0 "Q4" H 9450 4250 50  0000 L CNN
F 1 "BSC082N10LSG" H 9454 4155 50  0000 L CNN
F 2 "Package_TO_SOT_SMD:TDSON-8-1" H 9450 4125 50  0001 L CIN
F 3 "http://www.infineon.com/dgdl/Infineon-BSC082N10LS-DS-v01_07-en.pdf?fileId=db3a3043163797a6011647faad240719" V 9250 4200 50  0001 L CNN
	1    9250 4200
	1    0    0    -1  
$EndComp
Wire Wire Line
	9350 4000 9350 3650
Wire Wire Line
	9350 3650 8250 3650
Connection ~ 8250 3650
Wire Wire Line
	8250 3650 8250 3700
Wire Wire Line
	9350 4700 9350 4400
$Comp
L pspice:INDUCTOR L1
U 1 1 60B9AE0D
P 9350 3550
F 0 "L1" H 9350 3765 50  0000 C CNN
F 1 "33U" H 9350 3674 50  0000 C CNN
F 2 "Inductor_SMD:L_6.3x6.3_H3" H 9350 3550 50  0001 C CNN
F 3 "~" H 9350 3550 50  0001 C CNN
	1    9350 3550
	1    0    0    -1  
$EndComp
Wire Wire Line
	9100 3550 8250 3550
Connection ~ 8250 3550
Wire Wire Line
	8250 3550 8250 3650
$Comp
L Device:R_Small_US R16
U 1 1 60B9C668
P 10050 3550
F 0 "R16" V 9845 3550 50  0000 C CNN
F 1 "6m" V 9936 3550 50  0000 C CNN
F 2 "Resistor_SMD:R_0201_0603Metric_Pad0.64x0.40mm_HandSolder" H 10050 3550 50  0001 C CNN
F 3 "~" H 10050 3550 50  0001 C CNN
	1    10050 3550
	0    1    1    0   
$EndComp
Wire Wire Line
	9600 3550 9800 3550
Wire Wire Line
	10150 3550 10400 3550
$Comp
L pspice:C C10
U 1 1 60BA12EB
P 10800 4050
F 0 "C10" H 10978 4096 50  0000 L CNN
F 1 "150u" H 10978 4005 50  0000 L CNN
F 2 "Capacitor_SMD:CP_Elec_3x5.3" H 10800 4050 50  0001 C CNN
F 3 "~" H 10800 4050 50  0001 C CNN
	1    10800 4050
	1    0    0    -1  
$EndComp
Wire Wire Line
	10800 4700 10800 4300
Wire Wire Line
	10800 3800 10800 3550
Connection ~ 10800 3550
Wire Wire Line
	10800 3550 10950 3550
Wire Wire Line
	6600 3250 7100 3250
Wire Wire Line
	7100 3250 7100 2750
Wire Wire Line
	7100 2750 10800 2750
Wire Wire Line
	10800 2750 10800 3550
Wire Wire Line
	3400 3050 5000 3050
Wire Wire Line
	5000 3150 4800 3150
Wire Wire Line
	4800 3150 4800 2200
Wire Wire Line
	10650 2200 10650 3550
Connection ~ 10650 3550
Wire Wire Line
	10650 3550 10800 3550
$Comp
L pspice:C C9
U 1 1 60BA6B55
P 7750 1350
F 0 "C9" V 8065 1350 50  0000 C CNN
F 1 "0.1u" V 7974 1350 50  0000 C CNN
F 2 "Capacitor_SMD:CP_Elec_3x5.3" H 7750 1350 50  0001 C CNN
F 3 "~" H 7750 1350 50  0001 C CNN
	1    7750 1350
	0    -1   -1   0   
$EndComp
Wire Wire Line
	4650 1350 4650 3550
Wire Wire Line
	4650 3550 5000 3550
Wire Wire Line
	6600 2850 6800 2850
Wire Wire Line
	6800 2850 6800 1950
Connection ~ 6800 1350
Wire Wire Line
	6800 1350 4650 1350
Wire Wire Line
	6600 2650 7000 2650
Wire Wire Line
	7000 2650 7000 1350
Wire Wire Line
	7000 1350 6800 1350
Wire Wire Line
	6800 1950 6150 1950
Connection ~ 6800 1950
Wire Wire Line
	6800 1950 6800 1350
$Comp
L Device:R_Small_US R15
U 1 1 60BAF569
P 6050 1950
F 0 "R15" V 6150 1950 50  0000 C CNN
F 1 "11k" V 6250 1950 50  0000 C CNN
F 2 "Resistor_SMD:R_0201_0603Metric_Pad0.64x0.40mm_HandSolder" H 6050 1950 50  0001 C CNN
F 3 "~" H 6050 1950 50  0001 C CNN
	1    6050 1950
	0    1    1    0   
$EndComp
Wire Wire Line
	5950 1950 4500 1950
Wire Wire Line
	4500 1950 4500 3950
Wire Wire Line
	4500 3950 5000 3950
Wire Wire Line
	6600 3450 6900 3450
Wire Wire Line
	6900 3450 6900 1800
Connection ~ 6900 1800
Wire Wire Line
	6900 1800 8250 1800
Wire Wire Line
	6600 3050 6700 3050
Wire Wire Line
	6700 3050 6700 1800
Connection ~ 6700 1800
Wire Wire Line
	6700 1800 6900 1800
$Comp
L pspice:C C7
U 1 1 60BB7D05
P 7350 4350
F 0 "C7" H 7528 4396 50  0000 L CNN
F 1 "4.7u" H 7528 4305 50  0000 L CNN
F 2 "Capacitor_SMD:CP_Elec_3x5.3" H 7350 4350 50  0001 C CNN
F 3 "~" H 7350 4350 50  0001 C CNN
	1    7350 4350
	1    0    0    -1  
$EndComp
Wire Wire Line
	7350 3850 7350 3950
Wire Wire Line
	7350 4600 7350 5050
Wire Wire Line
	6600 3850 7050 3850
Wire Wire Line
	7050 3850 7050 3950
Wire Wire Line
	7050 3950 7350 3950
Connection ~ 7350 3950
Wire Wire Line
	7350 3950 7350 4100
Wire Wire Line
	9050 4200 7150 4200
Wire Wire Line
	7150 4200 7150 4050
Wire Wire Line
	7150 4050 6600 4050
Wire Wire Line
	7350 1100 5050 1100
Wire Wire Line
	5050 1100 5050 1800
Connection ~ 5050 1800
Wire Wire Line
	5050 1800 6700 1800
Wire Wire Line
	5000 3450 4300 3450
Wire Wire Line
	4300 3450 4300 5050
Wire Wire Line
	5000 3350 4900 3350
Wire Wire Line
	4900 3350 4900 3850
Wire Wire Line
	5000 3850 4900 3850
Connection ~ 4900 3850
Wire Wire Line
	4900 3850 4900 5050
Wire Wire Line
	8250 4250 6600 4250
$Comp
L pspice:C C6
U 1 1 60BCCF7C
P 4000 3850
F 0 "C6" H 4178 3896 50  0000 L CNN
F 1 "1n" H 4178 3805 50  0000 L CNN
F 2 "Capacitor_SMD:CP_Elec_3x5.3" H 4000 3850 50  0001 C CNN
F 3 "~" H 4000 3850 50  0001 C CNN
	1    4000 3850
	1    0    0    -1  
$EndComp
Wire Wire Line
	4000 3600 4000 3550
Wire Wire Line
	4700 3200 4700 2850
Wire Wire Line
	4700 2850 5000 2850
Wire Wire Line
	5000 2950 4750 2950
Wire Wire Line
	4750 2950 4750 4150
Wire Wire Line
	4750 4150 4000 4150
Wire Wire Line
	4000 4100 4000 4150
Wire Wire Line
	4000 4150 4000 5600
Wire Wire Line
	4000 5600 10400 5600
Wire Wire Line
	10400 5600 10400 3550
Connection ~ 4000 4150
Connection ~ 10400 3550
Wire Wire Line
	10400 3550 10650 3550
Wire Wire Line
	4000 3550 3750 3550
Wire Wire Line
	3750 3550 3750 5800
Wire Wire Line
	3750 5800 9800 5800
Wire Wire Line
	9800 5800 9800 3550
Connection ~ 4000 3550
Connection ~ 9800 3550
Wire Wire Line
	9800 3550 9950 3550
$Comp
L Device:R_Small_US R12
U 1 1 60BDF63B
P 4600 4650
F 0 "R12" H 4668 4696 50  0000 L CNN
F 1 "75k" H 4668 4605 50  0000 L CNN
F 2 "Resistor_SMD:R_0201_0603Metric_Pad0.64x0.40mm_HandSolder" H 4600 4650 50  0001 C CNN
F 3 "~" H 4600 4650 50  0001 C CNN
	1    4600 4650
	1    0    0    -1  
$EndComp
Wire Wire Line
	4600 4950 4600 4750
Wire Wire Line
	4600 4550 4600 4350
Wire Wire Line
	4600 4350 5000 4350
Wire Wire Line
	5000 2750 4250 2750
Wire Wire Line
	4250 2750 4250 3450
Wire Wire Line
	4250 3450 3600 3450
Wire Wire Line
	5000 4450 3600 4450
Wire Wire Line
	3600 3450 3600 4450
Connection ~ 3600 4450
Wire Wire Line
	3600 4450 3600 5500
Wire Wire Line
	5000 4250 3350 4250
Wire Wire Line
	3350 4250 3350 4650
$Comp
L Device:R_Small_US R11
U 1 1 60C01306
P 3350 4750
F 0 "R11" H 3150 4800 50  0000 L CNN
F 1 "30.1k" H 3100 4700 50  0000 L CNN
F 2 "Resistor_SMD:R_0201_0603Metric_Pad0.64x0.40mm_HandSolder" H 3350 4750 50  0001 C CNN
F 3 "~" H 3350 4750 50  0001 C CNN
	1    3350 4750
	1    0    0    -1  
$EndComp
Wire Wire Line
	3350 4850 3350 5500
NoConn ~ 5000 4050
NoConn ~ 5000 3750
NoConn ~ 5000 3650
NoConn ~ 6600 4150
NoConn ~ 6600 3950
NoConn ~ 6600 3750
NoConn ~ 6600 3550
NoConn ~ 6600 3350
NoConn ~ 6600 3150
NoConn ~ 6600 2950
NoConn ~ 6600 2750
NoConn ~ 5800 4950
Text GLabel 3200 1800 0    50   Input ~ 0
InputVR
Text GLabel 3000 4100 0    50   Input ~ 0
GND
Text GLabel 2350 3800 0    50   Input ~ 0
GND
Text GLabel 3350 5500 0    50   Input ~ 0
GND
Text GLabel 3600 5500 0    50   Input ~ 0
GND
Text GLabel 4600 4950 0    50   Input ~ 0
GND
Text GLabel 7500 5050 2    50   Input ~ 0
GND
Text GLabel 9350 4700 0    50   Input ~ 0
GND
Text GLabel 10800 4700 0    50   Input ~ 0
GND
Text GLabel 8150 1350 2    50   Input ~ 0
GND
Text GLabel 4050 2850 0    50   Input ~ 0
GND
Text GLabel 10950 3550 2    50   Input ~ 0
5V
Wire Wire Line
	7000 1350 7500 1350
Connection ~ 7000 1350
Wire Wire Line
	8000 1350 8150 1350
Wire Wire Line
	7650 3300 7950 3300
Wire Wire Line
	7350 3450 7350 1100
Wire Wire Line
	7050 3650 6600 3650
$Comp
L Transistor_FET:Si1442DH Q3
U 1 1 60BB4625
P 7250 3650
F 0 "Q3" H 7454 3696 50  0000 L CNN
F 1 "Si1442DH" H 7454 3605 50  0000 L CNN
F 2 "Package_TO_SOT_SMD:SOT-363_SC-70-6" H 7350 3250 50  0001 C CNN
F 3 "http://www.vishay.com/docs/63772/si1442dh.pdf" H 7250 3650 50  0001 C CNN
	1    7250 3650
	1    0    0    -1  
$EndComp
Wire Wire Line
	4900 5050 7350 5050
Connection ~ 4900 5050
Wire Wire Line
	4300 5050 4900 5050
Wire Wire Line
	7350 5050 7500 5050
Connection ~ 7350 5050
Wire Wire Line
	4800 2200 10650 2200
Wire Wire Line
	4900 2650 4900 2400
Wire Wire Line
	4050 2650 4050 2850
Wire Wire Line
	4050 2350 4050 2400
Wire Wire Line
	3200 1800 4050 1800
Wire Wire Line
	4050 1800 4050 2150
Connection ~ 4050 1800
Wire Wire Line
	4050 1800 5050 1800
Wire Wire Line
	4050 2400 4900 2400
Connection ~ 4050 2400
Wire Wire Line
	4050 2400 4050 2450
Wire Wire Line
	4000 3200 4000 3550
Wire Wire Line
	4000 3200 4700 3200
$EndSCHEMATC
